Starcraft 2 - How Performance Metrics Relate to League Placement
…
! No improvement for 10 iterations; returning current results.

tictoc::toc()

40.7 sec elapsed

doParallel::stopImplicitCluster()
unregister()

dtTuneResults %>%
  collect_metrics()

# A tibble: 30 × 9
   tree_depth min_n .metric  .estimator  mean     n std_err .config        .iter
        <int> <int> <chr>    <chr>      <dbl> <int>   <dbl> <chr>          <int>
 1          9    29 accuracy multiclass 0.344    10 0.00965 Preprocessor1…     0
 2          4    36 accuracy multiclass 0.346    10 0.00944 Preprocessor1…     0
 3          4    17 accuracy multiclass 0.346    10 0.00944 Preprocessor1…     0
 4         10    18 accuracy multiclass 0.344    10 0.00965 Preprocessor1…     0
 5          5    31 accuracy multiclass 0.344    10 0.00965 Preprocessor1…     0
 6          6    34 accuracy multiclass 0.344    10 0.00965 Preprocessor1…     0
 7          7    11 accuracy multiclass 0.344    10 0.00965 Preprocessor1…     0
 8          7     3 accuracy multiclass 0.344    10 0.00965 Preprocessor1…     0
 9         14     7 accuracy multiclass 0.344    10 0.00965 Preprocessor1…     0
10          5    20 accuracy multiclass 0.344    10 0.00965 Preprocessor1…     0
# ℹ 20 more rows
…
! No improvement for 10 iterations; returning current results.

tictoc::toc()

54.41 sec elapsed

doParallel::stopImplicitCluster()
unregister()

dtTuneResults %>%
  collect_metrics()

# A tibble: 30 × 9
   tree_depth min_n .metric  .estimator   mean     n std_err .config       .iter
        <int> <int> <chr>    <chr>       <dbl> <int>   <dbl> <chr>         <int>
 1         14    14 accuracy multiclass 0.296     10 0.00971 Preprocessor…     0
 2          1     6 accuracy multiclass 0.0545    10 0.00355 Preprocessor…     0
 3         13    38 accuracy multiclass 0.296     10 0.00971 Preprocessor…     0
 4          9    25 accuracy multiclass 0.296     10 0.00971 Preprocessor…     0
 5         11    31 accuracy multiclass 0.296     10 0.00971 Preprocessor…     0
 6         15     3 accuracy multiclass 0.296     10 0.00971 Preprocessor…     0
 7         14    16 accuracy multiclass 0.296     10 0.00971 Preprocessor…     0
 8          3    29 accuracy multiclass 0.281     10 0.00814 Preprocessor…     0
 9          4    21 accuracy multiclass 0.296     10 0.00971 Preprocessor…     0
10          7    11 accuracy multiclass 0.296     10 0.00971 Preprocessor…     0
# ℹ 20 more rows
…
! No improvement for 10 iterations; returning current results.

tictoc::toc()

403.91 sec elapsed

doParallel::stopImplicitCluster()
unregister()

rfTuneResults %>%
  collect_metrics()

# A tibble: 30 × 9
   trees min_n .metric  .estimator  mean     n std_err .config             .iter
   <int> <int> <chr>    <chr>      <dbl> <int>   <dbl> <chr>               <int>
 1  1612    37 accuracy multiclass 0.373    10 0.00564 Preprocessor1_Mode…     0
 2  1717    29 accuracy multiclass 0.371    10 0.00595 Preprocessor1_Mode…     0
 3   894    11 accuracy multiclass 0.373    10 0.00757 Preprocessor1_Mode…     0
 4  1953    10 accuracy multiclass 0.370    10 0.00767 Preprocessor1_Mode…     0
 5  1369    24 accuracy multiclass 0.372    10 0.00625 Preprocessor1_Mode…     0
 6  1551    28 accuracy multiclass 0.370    10 0.00639 Preprocessor1_Mode…     0
 7   514     4 accuracy multiclass 0.367    10 0.00741 Preprocessor1_Mode…     0
 8   400    20 accuracy multiclass 0.375    10 0.00763 Preprocessor1_Mode…     0
 9   661     7 accuracy multiclass 0.371    10 0.00830 Preprocessor1_Mode…     0
10  1435    18 accuracy multiclass 0.372    10 0.00582 Preprocessor1_Mode…     0
# ℹ 20 more rows
…
! No improvement for 10 iterations; returning current results.

tictoc::toc()

2834.19 sec elapsed

doParallel::stopImplicitCluster()
unregister()

xgbTuneResults %>%
  collect_metrics()

# A tibble: 30 × 12
   trees tree_depth learn_rate loss_reduction sample_size .metric  .estimator
   <int>      <int>      <dbl>          <dbl>       <dbl> <chr>    <chr>     
 1   650          1    0.0241    0.0000165          0.594 accuracy multiclass
 2  1475          2    0.00384   0.0642             0.183 accuracy multiclass
 3   365          3    0.00230   0.0000000793       0.493 accuracy multiclass
 4   182          3    0.224     0.413              0.766 accuracy multiclass
 5  1265          4    0.00267   0.000000634        0.628 accuracy multiclass
 6  1640          5    0.0122    0.0000000152       0.297 accuracy multiclass
 7  1052          6    0.00768   0.000731           0.392 accuracy multiclass
 8   887          6    0.238     1.34               0.122 accuracy multiclass
 9  1162          7    0.0172    0.00610            0.830 accuracy multiclass
10  1348          8    0.0623   29.5                0.700 accuracy multiclass
# ℹ 20 more rows
# ℹ 5 more variables: mean <dbl>, n <int>, std_err <dbl>, .config <chr>,
#   .iter <int>
…
