Spaceship Titanic Investigation
…
Confusion Matrix

inspect these to look for ways to improve

Code

logReg_fit %>% 
  augment(train)      #per passenger liklihood based on model

# A tibble: 6,954 × 17
   .pred_class .pred_no  .pred_yes passenger_id home_planet cryo_sleep cabin
   <fct>          <dbl>      <dbl> <chr>        <chr>       <chr>      <chr>
 1 no             1.00  0.00000885 0003_01      Europa      no         A/0/S
 2 no             0.996 0.00437    0003_02      Europa      no         A/0/S
 3 yes            0.448 0.552      0012_01      Earth       no         <NA> 
 4 no             0.714 0.286      0014_01      Mars        no         F/3/P
 5 no             0.715 0.285      0015_01      Earth       no         F/4/P
 6 no             0.824 0.176      0017_02      Earth       no         F/6/P
 7 yes            0.313 0.687      0020_01      Earth       yes        E/0/S
 8 yes            0.284 0.716      0020_02      Earth       yes        E/0/S
 9 yes            0.257 0.743      0020_03      Earth       yes        E/0/S
10 yes            0.325 0.675      0020_05      Earth       yes        E/0/S
# ℹ 6,944 more rows
# ℹ 10 more variables: destination <chr>, age <dbl>, vip <chr>,
#   room_service <dbl>, food_court <dbl>, shopping_mall <dbl>, spa <dbl>,
#   vr_deck <dbl>, name <chr>, transported <fct>
…
Code

#separating out false-negative vs false-positives and corrects

logReg_fit %>% 
  augment(train) %>% 
  mutate(
    correct_flag = ifelse(transported == .pred_class, "correct",
                          ifelse(transported == "yes", 
                                 "false-negative", "false-positive") )   #truly an if....else
  ) %>% 
  filter(correct_flag == "false-negative") 

# A tibble: 670 × 18
   .pred_class .pred_no .pred_yes passenger_id home_planet cryo_sleep cabin 
   <fct>          <dbl>     <dbl> <chr>        <chr>       <chr>      <chr> 
 1 no             0.816     0.184 0002_01      Earth       no         F/0/S 
 2 no             0.829     0.171 0004_01      Earth       no         F/1/S 
 3 no             0.663     0.337 0005_01      Earth       no         F/0/P 
 4 no             0.562     0.438 0007_01      Earth       no         F/3/S 
 5 no             0.581     0.419 0017_01      Earth       no         G/0/P 
 6 no             0.641     0.359 0020_04      Earth       no         E/0/S 
 7 no             0.666     0.334 0031_03      Mars        no         F/9/P 
 8 no             0.827     0.173 0069_01      Earth       no         F/16/S
 9 no             0.824     0.176 0084_01      Earth       no         G/14/S
10 no             0.584     0.416 0099_02      Earth       <NA>       G/12/P
# ℹ 660 more rows
# ℹ 11 more variables: destination <chr>, age <dbl>, vip <chr>,
#   room_service <dbl>, food_court <dbl>, shopping_mall <dbl>, spa <dbl>,
#   vr_deck <dbl>, name <chr>, transported <fct>, correct_flag <chr>

Code

logReg_fit %>% 
  augment(train) %>% 
  mutate(
    correct_flag = ifelse(transported == .pred_class, "correct",
                          ifelse(transported == "yes", 
                                 "false-negative", "false-positive") )   #truly an if....else
  ) %>% 
  filter(correct_flag == "false-positive") 

# A tibble: 774 × 18
   .pred_class .pred_no .pred_yes passenger_id home_planet cryo_sleep cabin 
   <fct>          <dbl>     <dbl> <chr>        <chr>       <chr>      <chr> 
 1 yes           0.448      0.552 0012_01      Earth       no         <NA>  
 2 yes           0.313      0.687 0020_01      Earth       yes        E/0/S 
 3 yes           0.284      0.716 0020_02      Earth       yes        E/0/S 
 4 yes           0.257      0.743 0020_03      Earth       yes        E/0/S 
 5 yes           0.325      0.675 0020_05      Earth       yes        E/0/S 
 6 yes           0.0314     0.969 0026_01      Europa      no         C/0/P 
 7 yes           0.224      0.776 0039_01      Earth       yes        G/1/P 
 8 yes           0.354      0.646 0044_01      Earth       yes        G/3/P 
 9 yes           0.337      0.663 0058_01      Earth       yes        G/7/S 
10 yes           0.281      0.719 0103_03      Earth       yes        G/18/S
# ℹ 764 more rows
# ℹ 11 more variables: destination <chr>, age <dbl>, vip <chr>,
#   room_service <dbl>, food_court <dbl>, shopping_mall <dbl>, spa <dbl>,
#   vr_deck <dbl>, name <chr>, transported <fct>, correct_flag <chr>
…
accuracy - all equal….differentiates between true prediction and false prediction only.

recall - dont want false negatives (using this for titanic is like: bruh we really dont wanna sell a ticket to someone if theyve got any sort of chance of being teleported) (ability to flag class were interested in…likelihood we correctly predict true)

precision - likeliehood we correctly predict false. Ability to accurately predict adbsense of interested class.

Machine Learning

Code

 test %>% 
  mutate(deck = as.factor( substr(cabin, 1, 1) ) ) 

# A tibble: 1,739 × 15
   passenger_id home_planet cryo_sleep cabin  destination   age vip  
   <chr>        <chr>       <chr>      <chr>  <chr>       <dbl> <chr>
 1 0001_01      Europa      no         B/0/P  TRAPPIST-1e    39 no   
 2 0006_01      Earth       no         F/2/S  TRAPPIST-1e    26 no   
 3 0006_02      Earth       yes        G/0/S  TRAPPIST-1e    28 no   
 4 0010_01      Earth       no         G/1/S  TRAPPIST-1e    48 no   
 5 0011_01      Earth       no         F/2/P  TRAPPIST-1e    28 no   
 6 0022_01      Mars        no         D/0/P  TRAPPIST-1e    21 no   
 7 0028_01      Mars        no         F/8/P  TRAPPIST-1e    43 no   
 8 0031_01      Mars        no         F/9/P  TRAPPIST-1e    47 no   
 9 0035_01      Mars        no         D/1/P  55 Cancri e    23 no   
10 0038_01      Earth       no         F/10/S 55 Cancri e    20 no   
# ℹ 1,729 more rows
# ℹ 8 more variables: room_service <dbl>, food_court <dbl>,
#   shopping_mall <dbl>, spa <dbl>, vr_deck <dbl>, name <chr>,
#   transported <fct>, deck <fct>

Code

 train %>% 
  mutate(deck = as.factor( substr(cabin, 1, 1) ) ) 

# A tibble: 6,954 × 15
   passenger_id home_planet cryo_sleep cabin destination     age vip  
   <chr>        <chr>       <chr>      <chr> <chr>         <dbl> <chr>
 1 0003_01      Europa      no         A/0/S TRAPPIST-1e      58 yes  
 2 0003_02      Europa      no         A/0/S TRAPPIST-1e      33 no   
 3 0012_01      Earth       no         <NA>  TRAPPIST-1e      31 no   
 4 0014_01      Mars        no         F/3/P 55 Cancri e      27 no   
 5 0015_01      Earth       no         F/4/P 55 Cancri e      24 no   
 6 0017_02      Earth       no         F/6/P 55 Cancri e      14 no   
 7 0020_01      Earth       yes        E/0/S TRAPPIST-1e       1 no   
 8 0020_02      Earth       yes        E/0/S 55 Cancri e      49 no   
 9 0020_03      Earth       yes        E/0/S 55 Cancri e      29 no   
10 0020_05      Earth       yes        E/0/S PSO J318.5-22     1 no   
# ℹ 6,944 more rows
# ℹ 8 more variables: room_service <dbl>, food_court <dbl>,
#   shopping_mall <dbl>, spa <dbl>, vr_deck <dbl>, name <chr>,
#   transported <fct>, deck <fct>
…
ridge regression - mixture 0 - priortitize small coef

lasso - mixture 1 - coefs can be exactly 0 To say that, lasso will be able to get rid of crap predictors - we dont have to worry about it, so give it everything and if that matters, then tuning the mixture will do it for you

Code

#great for specifying where you want to look...how granular you want to look
param_grid <- crossing( #think cross multiply....every possible pair
  penalty = c(0.1, 1, 10, 100), #typical values are powers of ten
  mixture = seq(0,1, by = 0.1), #o-1 increment by 0.1
)

param_grid #44 combos here

# A tibble: 44 × 2
   penalty mixture
     <dbl>   <dbl>
 1     0.1     0  
 2     0.1     0.1
 3     0.1     0.2
 4     0.1     0.3
 5     0.1     0.4
 6     0.1     0.5
 7     0.1     0.6
 8     0.1     0.7
 9     0.1     0.8
10     0.1     0.9
# ℹ 34 more rows
…
